Functional Programming in R
…
There’s still a lot of noise here. Let’s write some functions that can help us inspect the data in a way that will be more informative for analyzing event data on contentious politics.

We can see from an initial inspection of the data that there are a lot of missing values. We are likely to repeatedly address this issue across other phases of this data project, and potentially across sub-analyses of the same dataset. Let’s write a function to make this less redundant.

First, let’s write a script that inspects the issue of missing values.

na_counts <- ccc_data %>% 
  summarise_all(~ sum(is.na(.))) %>%
  pivot_longer(cols = everything(), names_to = "var", values_to = "n_missing") %>% 
  filter(n_missing > 0) %>% 
  arrange(desc(n_missing))

na_counts

# A tibble: 65 × 2
   var                n_missing
   <chr>                  <int>
 1 source_28             139823
 2 source_29             139823
 3 source_30             139823
 4 police_deaths         139822
 5 participant_deaths    139809
 6 injuries_police       139803
 7 source_27             139786
 8 source_26             139780
 9 source_25             139775
10 source_24             139762
# ℹ 55 more rows
Great, let’s turn the above script into a function.

count_missing <- function(data){
  na_counts <- data %>% 
    summarise_all(~ sum(is.na(.))) %>%
    pivot_longer(cols = everything(), names_to = "var", values_to = "n_missing") %>% 
    filter(n_missing > 0) %>% 
    arrange(desc(n_missing))
  
  return(na_counts)
}

count_missing(ccc_data)

# A tibble: 65 × 2
   var                n_missing
   <chr>                  <int>
 1 source_28             139823
 2 source_29             139823
 3 source_30             139823
 4 police_deaths         139822
 5 participant_deaths    139809
 6 injuries_police       139803
 7 source_27             139786
 8 source_26             139780
 9 source_25             139775
10 source_24             139762
# ℹ 55 more rows
…
Exercise 3a Based on ccc_data, use across() and an anonymous function to convert all of the the text in the claims, organizations, and title columns to lowercase.

text_vars <- c("claims", "organizations", "title")

ccc_data_lower <- ccc_data %>%
  mutate(across(all_of(text_vars), ~ tolower(.x)))

ccc_data_lower %>% 
  select(claims, organizations, title)

# A tibble: 139,823 × 3
   claims                                                    organizations title
   <chr>                                                     <chr>         <chr>
 1 against prison labor, for safer conditions in alabama pr… free alabama… <NA> 
 2 for ending israel's occupation of palestine, for palesti… women in bla… <NA> 
 3 for president trump                                       contra costa… <NA> 
 4 for peace, against war, for banning nuclear weapons       wilpf         <NA> 
 5 for president trump, against election fraud, against gov… trump unity … patr…
 6 for canceling rent and providing financial relief during… <NA>          <NA> 
 7 for safer streets for bicyclists, for community-building  san francisc… <NA> 
 8 for peace                                                 <NA>          frid…
 9 for free phone calls and video visitations and increased… <NA>          <NA> 
10 black lives matter, against police brutality              the valley o… <NA> 
# ℹ 139,813 more rows
…
